0 0.091253 0.239955 0.083546 0.249686
0 0.263812 0.229753 0.075192 0.259865
0 0.474610 0.211906 0.081618 0.285336
0 0.693761 0.186457 0.088043 0.264933
0 0.761561 0.118700 0.071980 0.237399
0 0.809762 0.199193 0.088688 0.239462
0 0.968507 0.155874 0.062986 0.254798
